EDI_BBE_20170515
tablename	ActFlag	Created	Changed	BbeId	SecId	Exchgcd	Curencd	BbgexhId	Bbgexhtk
BBE	U	2012/10/25	2017/05/15	361755	1118504			BBG0000161F1	ALL V0 05/15/37
BBE	I	2017/05/15	2017/05/15	975501	5135947			BBG00GNQQYH0	AMGN F 05/10/19
BBE	I	2017/05/15	2017/05/15	975500	5135950			BBG00GNPYTD8	AMGN 1.9 05/10/19
BBE	I	2017/05/15	2017/05/15	975503	5135958			BBG00GNQ9F71	AMGN F 05/11/20
BBE	I	2017/05/15	2017/05/15	975502	5135959			BBG00GNQ9DW8	AMGN 2.2 05/11/20
BBE	I	2017/05/15	2017/05/15	975504	5135974			BBG00GNQ9J00	AMGN 2.65 05/11/22
BBE	I	2017/05/15	2017/05/15	975495	5134205			BBG00GM16PX9	AVHI 6.625 05/15/22 144A
BBE	I	2017/05/15	2017/05/15	976028	5134405			BBG00GM17QZ4	AVHI 6.625 05/15/22 REGS
BBE	I	2017/05/15	2017/05/15	976614	5137603			BBG00GKNP7Y1	BAC 0 05/10/47 EMTN
BBE	I	2017/05/15	2017/05/15	975533	5140583			BBG00GKR2PF8	BAC 3 05/15/29 MTN
BBE	I	2017/05/15	2017/05/15	975568	5137243			BBG00GNTNQK0	COF 2.5 05/12/20
BBE	I	2017/05/15	2017/05/15	975569	5137246			BBG00GNTPL10	COF F 05/12/20
BBE	I	2017/05/15	2017/05/15	975076	5137639			BBG00GNNJ4Q1	C 0.5 11/22/24 EMTN
BBE	I	2017/05/15	2017/05/15	975583	5140249			BBG00GPW8LB9	C F 05/17/24
BBE	U	2012/10/25	2017/05/15	402882	3900184			BBG003CRVZB6	COMPSC 4.45 09/15/22
BBE	I	2017/05/15	2017/05/15	975591	5136884			BBG00GNTXDM6	COST 2.15 05/18/21
BBE	I	2017/05/15	2017/05/15	975592	5136902			BBG00GNTZMZ0	COST 2.3 05/18/22
BBE	I	2017/05/15	2017/05/15	975593	5136921			BBG00GNV0S17	COST 2.75 05/18/24
BBE	I	2017/05/15	2017/05/15	975594	5136939			BBG00GNV31R5	COST 3 05/18/27
BBE	U	2016/06/08	2017/05/15	800095	1948712			BBG0000024S7	TOMARI V0 05/15/37
BBE	I	2017/05/15	2017/05/15	976748	5137864			BBG00GNYCWD6	GE 0.375 05/17/22
BBE	I	2017/05/15	2017/05/15	976749	5137909			BBG00GNYD2S5	GE 0.875 05/17/25
BBE	I	2017/05/15	2017/05/15	976750	5137944			BBG00GNYDMF5	GE 1.5 05/17/29
BBE	I	2017/05/15	2017/05/15	976751	5137971			BBG00GNYDPH6	GE 2.125 05/17/37
BBE	I	2017/05/15	2017/05/15	975805	5135049			BBG00GM4PJ57	GS 3.25 05/15/27 NOTz
BBE	I	2017/05/15	2017/05/15	976115	5135496			BBG00GNN3BB8	GS F 05/11/22 EMTN
BBE	I	2017/05/15	2017/05/15	976795	5139360			BBG00GNYDZV8	GS 1.375 05/15/24 EMTN
BBE	I	2017/05/15	2017/05/15	975806	5134397			BBG00GNH8FQ1	GS V0 05/10/27 mtn
BBE	I	2017/05/15	2017/05/15	975826	5135945			BBG00GNR2CV6	INTC F 05/11/20
BBE	I	2017/05/15	2017/05/15	975828	5135957			BBG00GNR2CX4	INTC F 05/11/22
BBE	I	2017/05/15	2017/05/15	975825	5135966			BBG00GNR0KL1	INTC 1.85 05/11/20
BBE	I	2017/05/15	2017/05/15	975827	5135979			BBG00GNR2CW5	INTC 2.35 05/11/22
BBE	I	2017/05/15	2017/05/15	975829	5135980			BBG00GNR3693	INTC 2.875 05/11/24
BBE	I	2017/05/15	2017/05/15	975824	5135982			BBG00GNR36C9	INTC 4.1 05/11/47
BBE	I	2017/05/15	2017/05/15	975823	5135995			BBG00GNR36B0	INTC 3.15 05/11/27
BBE	U	2015/09/07	2017/05/15	710209	4594000			BBG002YF9QN2	JPM 3.75 05/14/27 MTN
BBE	I	2017/05/15	2017/05/15	976824	5140253			BBG00GPVXF35	JPM V1.638 05/18/28 EMTN
BBE	I	2017/05/15	2017/05/15	975834	5137779			BBG00GNWV6F4	JEF V10 05/31/34
BBE	I	2017/05/15	2017/05/15	975836	5136206			BBG00GNT5XB5	KAMN 3.25 05/01/24
BBE	I	2017/05/15	2017/05/15	976659	5136790			BBG00GNT0692	K 0.8 11/17/22
BBE	I	2017/05/15	2017/05/15	975841	5134192			BBG00GNHBKV0	MS V4.25 05/30/27 MTN
BBE	I	2017/05/15	2017/05/15	976113	5134545			BBG00GNT3RZ4	MS 0 06/08/18
BBE	I	2017/05/15	2017/05/15	976114	5134547			BBG00GNT3S00	MS 0 06/08/18 0012
BBE	I	2017/05/15	2017/05/15	976112	5135495			BBG00GNT3RK0	MS 0 06/11/18
BBE	I	2017/05/15	2017/05/15	975855	5135902			BBG00GM5RWQ0	PEBKIL 0.8 08/14/17
BBE	I	2017/05/15	2017/05/15	975876	5139877			BBG00GNRB925	SALM 6.75 06/01/24 144A
BBE	I	2017/05/15	2017/05/15	975891	5137801			BBG00GP0B9V0	STT V2.653 05/15/23
BBE	I	2017/05/15	2017/05/15	975899	5139176			BBG00GPWKKP2	UPS F 05/16/22
BBE	I	2017/05/15	2017/05/15	975900	5140228			BBG00GPWHQD6	UPS 2.35 05/16/22
BBE	I	2017/05/15	2017/05/15	976039	5135487			BBG00GM1BJK1	USG 4.875 06/01/27 REGS
BBE	I	2017/05/15	2017/05/15	975908	5134381			BBG00GNDZ270	WFC 0 05/14/27
BBE	I	2017/05/15	2017/05/15	975909	5135454			BBG00GKL82S2	WFC 3 05/17/30 MTN
BBE	I	2017/05/15	2017/05/15	975910	5135462			BBG00GKQRLB6	WFC V3.25 05/17/27
BBE	I	2017/05/15	2017/05/15	975907	5135545			BBG00GLNF334	WFC 0 05/01/19
BBE	U	2012/10/26	2017/05/15	413436	665980			BBG0000HS956	WEC V0 05/15/67
BBE	I	2017/05/15	2017/05/15	976041	5136725			BBG00G71BD67	XRX 4.07 03/17/22 REGS
BBE	I	2017/05/15	2017/05/15	976033	5140297			BBG00GNX1GF3	FE 3.55 05/15/27 REGS
BBE	I	2017/05/15	2017/05/15	975840	5140302			BBG00GNV6307	FE 3.55 05/15/27 144A
BBE	I	2017/05/15	2017/05/15	975494	5134196			BBG00GMFSC09	AMAG 3.25 06/01/22
BBE	I	2017/05/15	2017/05/15	975505	5135593			BBG00GNQXNY7	AEP 3.3 06/01/27 X
BBE	I	2017/05/15	2017/05/15	975853	5137032			BBG00GNQYQS6	PPL 3.95 06/01/47
BBE	I	2017/05/15	2017/05/15	975810	5134105			BBG00GM596R6	HSBC 0 05/26/23 0028
BBE	I	2017/05/15	2017/05/15	975813	5134111			BBG00GM1CMY8	HSBC 0 06/01/20 000H
BBE	I	2017/05/15	2017/05/15	975811	5134118			BBG00GK8L705	HSBC 0 05/31/18 8776
BBE	I	2017/05/15	2017/05/15	975812	5134122			BBG00GK8M9Q2	HSBC 0 08/31/18 MTN4
BBE	I	2017/05/15	2017/05/15	975814	5134124			BBG00GM17WF3	HSBC 0 12/06/21 0004
BBE	I	2017/05/15	2017/05/15	975815	5134125			BBG00GM18CN7	HSBC 0 06/01/27
BBE	I	2017/05/15	2017/05/15	975817	5135243			BBG00GM64MN8	HSBC 0 05/11/21 EMTQ
BBE	I	2017/05/15	2017/05/15	975816	5135267			BBG00GMDBT05	HSBC 0 05/30/19
BBE	I	2017/05/15	2017/05/15	975819	5135290			BBG00GPXR6N6	HSBC 0 11/29/19 SX5L
BBE	I	2017/05/15	2017/05/15	975818	5135298			BBG00GPXR9P8	HSBC 0 05/31/22 000G
BBE	I	2017/05/15	2017/05/15	975586	5134126			BBG00GNDDDL4	C 0 05/17/18 0001
BBE	I	2017/05/15	2017/05/15	975581	5134440			BBG00GM1M4Q6	C 3.2 05/15/27 MTN
BBE	I	2017/05/15	2017/05/15	976631	5136824			BBG00GLRL9R9	C 0 05/03/18 EMTN
BBE	I	2017/05/15	2017/05/15	975584	5137642			BBG00FY6BL33	C 0 01/25/18 EmT1
BBE	I	2017/05/15	2017/05/15	976092	5140002			BBG00GNYS7M4	C 8 05/24/27
BBE	I	2017/05/15	2017/05/15	976093	5140004			BBG00GNYJGR9	C 11 05/24/22 Gmtn
BBE	I	2017/05/15	2017/05/15	976094	5140007			BBG00GP1TPD3	C V3 05/18/37 3MTN
BBE	I	2017/05/15	2017/05/15	975580	5140611			BBG00GLN8NT0	C 3 05/26/37 MTN
BBE	I	2017/05/15	2017/05/15	975585	5140618			BBG00GLNHBC4	C 2.25 05/26/24 MTN
BBE	I	2017/05/15	2017/05/15	975850	5137726			BBG00GNYX7Z4	ES 3.2 05/15/27
BBE	I	2017/05/15	2017/05/15	975897	5139089			BBG00GPXQS95	TOYOTA F 05/17/18 MTN
BBE	I	2017/05/15	2017/05/15	975888	5137835			BBG00GNTL8N9	AMGFIN 6.125 05/15/22
BBE	U	2015/05/11	2017/05/15	677609	4499501			BBG008LPCC49	PSEC 4.875 05/15/21 Notz
BBE	I	2017/05/15	2017/05/15	975576	5140235			BBG003GK2080	CHAIT 2012-A7 A7
BBE	U	2016/09/26	2017/05/15	844247	4908162			BBG00DW03GC3	JPM 1.45 09/21/18 BKNT
BBE	I	2017/05/15	2017/05/15	976051	5134117			BBG00GMJDMQ7	JPM 8.25 05/17/36 EMTN
BBE	I	2017/05/15	2017/05/15	976339	5137657			BBG00GLRNWD1	JPM 0 04/23/20
BBE	I	2017/05/15	2017/05/15	976336	5138995			BBG00GLRNYW6	JPM 0 04/23/20 0001
BBE	I	2017/05/15	2017/05/15	976337	5140114			BBG00GM3SS01	JPM 0 05/05/22 CD03
BBE	I	2017/05/15	2017/05/15	976335	5140103			BBG00GM3S7B5	JPM 0 05/05/22 CD01
BBE	I	2017/05/15	2017/05/15	976123	5140433			BBG00GPW48W9	JPM 0 05/25/42 EMTN
BBE	I	2017/05/15	2017/05/15	976338	5140119			BBG00GM3S6S9	JPM 0 05/05/20 0003
BBE	I	2017/05/15	2017/05/15	976334	5140100			BBG00GM3SLY9	JPM 0 05/05/22 CD02
BBE	I	2017/05/15	2017/05/15	975617	5136100			BBG00GK84893	DFS 2.45 05/03/24
BBE	I	2017/05/15	2017/05/15	975618	5136103			BBG00GK848F6	DFS 2.75 05/03/27
BBE	I	2017/05/15	2017/05/15	975616	5136125			BBG00GNT50Y2	DXCM 0.75 05/15/22
BBE	I	2017/05/15	2017/05/15	975530	5134084			BBG00GLM8593	BNP 0 11/04/19 MTN7
BBE	I	2017/05/15	2017/05/15	975532	5134413			BBG00GNHB6T4	BNP 0 05/10/19 0007
BBE	I	2017/05/15	2017/05/15	975531	5136656			BBG00GMHY0H6	BNP 0 05/21/18 000E
BBE	I	2017/05/15	2017/05/15	975848	5139026			BBG00GPWLY53	NI 3.49 05/15/27
BBE	I	2017/05/15	2017/05/15	975849	5139063			BBG00GPWM332	NI 4.375 05/15/47
BBE	U	2012/10/25	2017/05/15	369550	1110063			BBG0000HNBS1	RE V0 05/15/37
BBE	I	2017/05/15	2017/05/15	975541	5135325			BBG00GM5G279	BACR V0 05/06/27
BBE	I	2017/05/15	2017/05/15	975543	5134123			BBG00GNRYGS6	BACR V0 11/23/18 EMTV
BBE	I	2017/05/15	2017/05/15	975545	5134449			BBG00GNCZQV2	BACR 2 05/31/19 GMTN
BBE	I	2017/05/15	2017/05/15	975546	5135703			BBG00GM1Q516	BACR 7.5 05/14/18
BBE	I	2017/05/15	2017/05/15	975544	5136627			BBG00GNCMQJ0	BACR V0 05/10/22 0001
BBE	I	2017/05/15	2017/05/15	975542	5136644			BBG00GNDPZJ5	BACR V4.3 05/19/27 GMTN
BBE	I	2017/05/15	2017/05/15	975134	5137000			BBG00GNPQN77	BACR 1.25 05/10/19 0001
BBE	I	2017/05/15	2017/05/15	975619	5134669			BBG00GM1MFG2	DFS 3 05/15/22 NOTZ
BBE	I	2017/05/15	2017/05/15	975620	5134818			BBG00GM1MJT0	DFS 3.5 05/15/24 MTN
BBE	I	2017/05/15	2017/05/15	975621	5134833			BBG00GM1N2F1	DFS 4.1 05/15/29 MTN
BBE	I	2017/05/15	2017/05/15	975587	5134283			BBG00GM9Z7N1	C F 11/09/18 *
BBE	I	2017/05/15	2017/05/15	975539	5137252			BBG00GNTMNH2	BK V2.661 05/16/23 MTN
BBE	I	2017/05/15	2017/05/15	975540	5137271			BBG00GNTMTD3	BK 3.25 05/16/27 MTN
BBE	I	2017/05/15	2017/05/15	975911	5139201			BBG00GPWLL51	WLTW 3.6 05/15/24
BBE	I	2017/05/15	2017/05/15	975914	5134239			BBG00GNBNNK6	WYNNLV 5.25 05/15/27 144A
BBE	I	2017/05/15	2017/05/15	976040	5134420			BBG00GNBP7X5	WYNNLV 5.25 05/15/27 REGS
BBE	I	2017/05/15	2017/05/15	976037	5134575			BBG0000KLY42	SDFMHO 5.9405 07/01/48 REGS
BBE	I	2017/05/15	2017/05/15	975564	5134509			BBG00GM1NR93	CALVRT 3 05/17/27 NOTz
BBE	I	2017/05/15	2017/05/15	975565	5134530			BBG00GM1NWP4	CALVRT 4 05/17/32 NOTz
BBE	I	2017/05/15	2017/05/15	975563	5134539			BBG00GM1NF44	CALVRT 2 05/16/22 NOTz
BBE	I	2017/05/15	2017/05/15	975561	5134548			BBG00GM1N6B6	CALVRT 1 05/15/18 NOTz
BBE	I	2017/05/15	2017/05/15	975562	5134558			BBG00GM1N9Q4	CALVRT 1.5 05/15/20 NOTz
BBE	I	2017/05/15	2017/05/15	976032	5134130			BBG00GM6NP69	DAIGR 2.85 01/06/22 rEGS
BBE	I	2017/05/15	2017/05/15	975845	5135600			BBG00GNRZN00	NRUC 2.55 05/15/22 NOTZ
BBE	I	2017/05/15	2017/05/15	975895	5134267			BBG00GM9XNK1	TIAAGL 4.27 05/15/47 144A
BBE	I	2017/05/15	2017/05/15	976038	5135455			BBG00GM9Y9T2	TIAAGL 4.27 05/15/47 REGS
BBE	I	2017/05/15	2017/05/15	975497	5134716			BBG00GM1QH29	ALLY 3 05/15/20 NOTZ
BBE	I	2017/05/15	2017/05/15	975498	5134744			BBG00GM1QM91	ALLY 3.75 05/15/22 NOTZ
BBE	I	2017/05/15	2017/05/15	975844	5140562			BBG001CVZHQ1	NGN 2010-R3 3A
BBE	I	2017/05/15	2017/05/15	975879	5137771			BBG00GP0C789	SIR 4.25 05/15/24
BBE	U	2017/03/27	2017/05/15	955780	5091359			BBG004H0X274	HSBC 2 05/13/19 0000
BBE	I	2017/05/15	2017/05/15	975809	5139528			BBG003G0X026	HSBC V0 10/26/17 CD
BBE	I	2017/05/15	2017/05/15	976644	5134344			BBG00GM94WH7	GM F 05/10/21 EMTN
BBE	I	2017/05/15	2017/05/15	975499	5139557			BBG0000028L5	ABK 0 PERP l44A
BBE	I	2017/05/15	2017/05/15	975009	5136645			BBG00GNRT2S3	ABIBB 2.6 05/15/24 MPLE
BBE	I	2017/05/15	2017/05/15	975010	5136654			BBG00GNRTHX4	ABIBB 4.32 05/15/47 MPLE
BBE	I	2017/05/15	2017/05/15	975872	5140276			BBG00GGMKRN1	CQP 5.875 06/30/26
BBE	I	2017/05/15	2017/05/15	975801	5136104			BBG00GK83082	GS 2.35 05/03/22
BBE	I	2017/05/15	2017/05/15	975802	5140594			BBG00GK82ZZ6	GS 1.85 05/04/20
BBE	I	2017/05/15	2017/05/15	975803	5140606			BBG00GK83180	GS 2.75 05/03/27
BBE	I	2017/05/15	2017/05/15	975804	5140619			BBG00GK830B8	GS 2.45 05/03/24
BBE	I	2017/05/15	2017/05/15	975887	5134166			BBG00GNHGXJ1	SOCGEN 0 05/23/18 000C
BBE	I	2017/05/15	2017/05/15	975881	5135342			BBG00GMDN880	SOCGEN 5.6 05/13/19
BBE	I	2017/05/15	2017/05/15	975882	5135350			BBG00GMDN9G9	SOCGEN 8.375 05/13/19
BBE	I	2017/05/15	2017/05/15	975880	5135568			BBG00GLTS2W7	SOCGEN 14 05/02/19
BBE	I	2017/05/15	2017/05/15	976031	5137894			BBG00GNPK8P6	CCS 5.875 07/15/25 REGS
BBE	I	2017/05/15	2017/05/15	975575	5137900			BBG00GNPJ0T1	CCS 5.875 07/15/25 144A
BBE	I	2017/05/15	2017/05/15	976034	5135355			BBG00GM1N2K5	NWHM 7.25 04/01/22 REgs
BBE	I	2017/05/15	2017/05/15	976036	5137911			BBG00GNTR7B8	SAMMON 4.45 05/12/27 REGS
BBE	I	2017/05/15	2017/05/15	975877	5137917			BBG00GNTQWT5	SAMMON 4.45 05/12/27 144A
BBE	I	2017/05/15	2017/05/15	976016	5137089			BBG00G5L30B6	TGCLO 2014-1X CR
BBE	I	2017/05/15	2017/05/15	976012	5137100			BBG00G5L3062	TGCLO 2014-1X A2AR
BBE	I	2017/05/15	2017/05/15	976015	5137107			BBG00G5L3099	TGCLO 2014-1X BR
BBE	I	2017/05/15	2017/05/15	976014	5137112			BBG00G5L3080	TGCLO 2014-1X AXR
BBE	I	2017/05/15	2017/05/15	976013	5137117			BBG00G5L3071	TGCLO 2014-1X A2BR
BBE	I	2017/05/15	2017/05/15	976011	5137119			BBG00G5L3053	TGCLO 2014-1X A1R
BBE	I	2017/05/15	2017/05/15	975559	5137923			BBG00GNP5DQ1	CTREV 5.25 06/01/25
BBE	I	2017/05/15	2017/05/15	975798	5135561			BBG00GNRYZG7	F 3.1 05/20/22 NOTZ
BBE	I	2017/05/15	2017/05/15	975797	5135550			BBG00GNRYS91	F 2.4 05/20/20 NOTZ
BBE	I	2017/05/15	2017/05/15	975799	5135570			BBG00GNRZ1L5	F 4.1 05/20/27 NOTZ
BBE	I	2017/05/15	2017/05/15	975821	5135310			BBG00GMFSLD5	HUBS 0.25 06/01/22 144A
BBE	I	2017/05/15	2017/05/15	975614	5138603			BBG00GP0YJ34	DERM 3 05/15/22 144A
BBE	I	2017/05/15	2017/05/15	975554	5138292			BBG00GNR55D8	CDK 4.875 06/01/27 144A
BBE	I	2017/05/15	2017/05/15	975577	5136861			BBG00GNTJ5Z5	CC 5.375 05/15/27
BBE	U	2017/02/06	2017/05/15	929014	5036089			BBG004H8J8T6	BMO 1.75 05/15/23 0000
BBE	I	2017/05/15	2017/05/15	975547	5135994			BBG00GH6B0Z1	BSVBK 1 01/31/18
BBE	I	2017/05/15	2017/05/15	975548	5135998			BBG00GH69ZQ7	BSVBK 1.05 02/28/18
BBE	I	2017/05/15	2017/05/15	975873	5140967			BBG00GH72WL4	SAFR 1.05 05/14/18
BBE	I	2017/05/15	2017/05/15	975874	5140969			BBG00GH770C9	SAFR 1.15 06/15/18
BBE	I	2017/05/15	2017/05/15	975875	5140971			BBG00GH77039	SAFR 1.2 08/15/18
BBE	I	2017/05/15	2017/05/15	975890	5140980			BBG00GK6VL16	SBIIN 1.05 02/12/18
BBE	I	2017/05/15	2017/05/15	975892	5140984			BBG00GH785J0	STEARN 1.05 05/03/18
BBE	I	2017/05/15	2017/05/15	975625	5140962			BBG00GGX8K92	EVER 1.75 04/28/20
BBE	I	2017/05/15	2017/05/15	975623	5140972			BBG00GGX8K74	EVER 1.5 04/26/19
BBE	I	2017/05/15	2017/05/15	975624	5140981			BBG00GGX8K83	EVER 2.15 04/28/22
BBE	I	2017/05/15	2017/05/15	976695	5134761			BBG00GNRGST9	MS 0 05/10/22
BBE	I	2017/05/15	2017/05/15	975842	5135343			BBG00GNBMN72	MS 0 05/09/22
BBE	I	2017/05/15	2017/05/15	975843	5135464			BBG00GNRGSH2	MS 0 09/21/18
BBE	I	2017/05/15	2017/05/15	976110	5138896			BBG00GPWD5W5	MS V7 11/28/35 eMTN
BBE	I	2017/05/15	2017/05/15	975807	5134276			BBG00GM9WX20	GUARDN 2.5 05/08/22 144A
BBE	I	2017/05/15	2017/05/15	975808	5135227			BBG00GM9X2Y2	GUARDN 2.5 05/08/22 REGS
BBE	I	2017/05/15	2017/05/15	975831	5135326			BBG00GM6LCW1	JPM 8 05/10/18
BBE	I	2017/05/15	2017/05/15	975832	5134390			BBG00GNRFTX3	JPM 0 05/23/18
BBE	I	2017/05/15	2017/05/15	975830	5135330			BBG00GN9X7F1	JPM 0 05/21/18 MDM2
BBE	I	2017/05/15	2017/05/15	975578	5134203			BBG00GFL9NW6	CHCOCH 5.875 03/31/25
BBE	I	2017/05/15	2017/05/15	975579	5134206			BBG00GFL9KD3	CHCOCH 7 06/30/24
BBE	I	2017/05/15	2017/05/15	976001	5139452			BBG005KF1661	JTWN 2013-3X B
BBE	I	2017/05/15	2017/05/15	976002	5140462			BBG005KF1670	JTWN 2013-3X C
BBE	I	2017/05/15	2017/05/15	975572	5137827			BBG005NCW787	CATLK 2013-1A A2
BBE	I	2017/05/15	2017/05/15	975573	5137866			BBG005NCW7B3	CATLK 2013-1A C
BBE	I	2017/05/15	2017/05/15	975555	5134113			BBG00GNHGNM9	CHMHIL 10 04/28/20 144A
BBE	I	2017/05/15	2017/05/15	975557	5134153			BBG00GM59QC8	CRHID 3.4 05/09/27 144A
BBE	I	2017/05/15	2017/05/15	976029	5134163			BBG00GM59TF9	CRHID 3.4 05/09/27 REGS
BBE	I	2017/05/15	2017/05/15	975558	5134185			BBG00GM5B0M1	CRHID 4.4 05/09/47 144A
BBE	I	2017/05/15	2017/05/15	976030	5134200			BBG00GM5B498	CRHID 4.4 05/09/47 REGS
BBE	I	2017/05/15	2017/05/15	975864	5134179			BBG00GNDQ074	GENONE 10.5 06/01/22 144A
BBE	I	2017/05/15	2017/05/15	976035	5134386			BBG00GNDQ5L7	GENONE 10.5 06/01/22 REGS
BBE	I	2017/05/15	2017/05/15	975862	5136691			BBG00GLTB585	REIFUN 3.513 11/01/25
BBE	I	2017/05/15	2017/05/15	975861	5136696			BBG00GLTB111	REIFUN 3.366 11/01/24
BBE	I	2017/05/15	2017/05/15	975863	5136701			BBG00GLT9WP0	REIFUN 3.166 11/01/23
BBE	I	2017/05/15	2017/05/15	975946	5137405			BBG00GCMPMK4	CERB 2017-1X D
BBE	I	2017/05/15	2017/05/15	975943	5137408			BBG00GCMPMG9	CERB 2017-1X A
BBE	I	2017/05/15	2017/05/15	975945	5137415			BBG00GCMPMJ6	CERB 2017-1X C
BBE	I	2017/05/15	2017/05/15	975944	5137419			BBG00GCMPMH8	CERB 2017-1X B
BBE	I	2017/05/15	2017/05/15	975589	5139526			BBG00GP25JW0	CLDCRN 10.125 08/01/24
BBE	I	2017/05/15	2017/05/15	975820	5140977			BBG00GK83D75	HNCKBK 1.4 05/03/19
BBE	I	2017/05/15	2017/05/15	976413	5139279			BBG00GNX4TY1	PTROAM 4.625 02/16/20 REGS
EDI_ENDOFFILE
