EDI_LCC_20170515
TableName	Actflag	Created	Changed	LccID	SecID	ISIN	ExchgCD	EffectiveDate	OldLocalCode	NewLocalCode	EventType	RelEventID
LCC	I	2017/05/15	2017/05/15	189315	269579	US26439RAC07	USTRCE	1998/07/21	DUK.GQ	ENB3674071	CORR	
LCC	I	2017/05/15	2017/05/15	189316	269587	US26439RAH93	USTRCE	1999/09/29	DUK.GT	ENB3674080	CORR	
LCC	I	2017/05/15	2017/05/15	189318	269595	US26439RAK23	USTRCE	2002/02/16	DUK.GV	ENB3674087	CORR	
LCC	I	2017/05/15	2017/05/15	189321	1073567	US882389CC14	USTRCE	2002/07/03	DUK.HO	ENB3703678	CORR	
LCC	I	2017/05/15	2017/05/15	220387	2757941	US84756NAB55	USTRCE	2013/06/12	SEP.AB	ENB3692607	CORR	
LCC	I	2017/05/13	2017/05/15	318474	3859308	US22002T8844	USNYSE	2017/05/12	OFCPRL	OFCPRLCL	LCC	
LCC	I	2017/05/15	2017/05/15	318514	5114358	US00215JAA79	USTRCE	2017/05/10	ASUC4485219	AMSR4485219	CORR	
LCC	I	2017/05/15	2017/05/15	318538	5141737	US76116AAD00	USTRCE	2017/05/12	76116AAD0	REN4495543	CLEAN	
LCC	I	2017/05/15	2017/05/15	318556	1232209	US882384AA88	USTRCE	2007/09/11	SE.AG	ENB3671599	CORR	
LCC	I	2017/05/15	2017/05/15	318557	1289385	US84755TAA51	USTRCE	2008/04/10	SE.GA	ENB3673114	CORR	
LCC	I	2017/05/15	2017/05/15	318562	1509592	US84755TAC18	USTRCE	2008/09/08	SE.GC	ENB3674196	CORR	
LCC	I	2017/05/15	2017/05/15	318563	1552065	US84755TAD90	USTRCE	2009/08/28	SE.GE	ENB3676169	CORR	
LCC	I	2017/05/15	2017/05/15	318564	2241174	US882384AB61	USTRCE	2010/12/06	SE.GF	ENB3687468	CORR	
LCC	I	2017/05/15	2017/05/15	318567	2339487	USU88240AA14	USTRCE	2010/12/06	SE.GG	ENB3766639	CORR	
LCC	I	2017/05/15	2017/05/15	318568	3928688	US882384AC45	USTRCE	2012/10/24	SE3919730	ENB3919730	CORR	
LCC	I	2017/05/15	2017/05/15	318569	4177295	USU88240AB96	USTRCE	2012/10/24	SE3919733	ENB3919733	CORR	
LCC	I	2017/05/15	2017/05/15	318570	3991222	US84755TAE73	USTRCE	2013/02/28	SE3975234	ENB3975234	CORR	
LCC	I	2017/05/15	2017/05/15	318571	4110058	US84756NAC39	USTRCE	2013/09/25	SE4051629	ENB4051629	CORR	
LCC	I	2017/05/15	2017/05/15	318572	4110062	US84756NAD12	USTRCE	2013/09/25	SE4051631	ENB4051631	CORR	
LCC	I	2017/05/15	2017/05/15	318573	4110064	US84756NAE94	USTRCE	2013/09/25	SE4051634	ENB4051634	CORR	
LCC	I	2017/05/15	2017/05/15	318574	4462281	US84756NAG43	USTRCE	2015/03/12	SE4220969	ENB4220969	CORR	
LCC	I	2017/05/15	2017/05/15	318575	4462276	US84756NAF69	USTRCE	2015/03/12	SE4220976	ENB4220976	CORR	
LCC	I	2017/05/15	2017/05/15	318576	4926443	US84756NAH26	USTRCE	2016/10/17	SE4412481	ENB4412481	CORR	
EDI_ENDOFFILE
