EDI_INTPY_20170515
TableName	Actflag	Created	Changed	SecID	ISIN	DebtCurrency	NominalValue	ExchgCD	RdID	OptionID	Recdate	Exdate	Paydate	InterestFromDate	InterestToDate	Days	Interest_Currency	Interest_Rate	GrossInterest	NetInterest	DomesticTaxRate	NonResidentTaxRate	RescindInterest	AgencyFees	CouponNo	DefaultOpt	OptElectionDate	AnlCoupRate	InDefPay	NilInt	InterestGraceDays	InterestGraceDayConvention
INTPY	I	2017/01/17	2017/05/15	2680543	US126650BX71	USD	2000.00000	USBND	4236960	1	2017/05/01			2016/11/15	2017/05/14		USD	2.875000000	0.028750000				F			F		5.750000000		F		
INTPY	I	2017/01/17	2017/05/15	2680543	US126650BX71	USD	2000.00000	USNYSE	4236960	1	2017/05/01		2017/05/15	2016/11/15	2017/05/14		USD	2.875000000	0.028750000				F			F		5.750000000		F		
INTPY	I	2017/01/17	2017/05/15	2680543	US126650BX71	USD	2000.00000	USTRCE	4236960	1	2017/05/01		2017/05/15	2016/11/15	2017/05/14		USD	2.875000000	0.028750000				F			F		5.750000000		F		
INTPY	I	2017/01/17	2017/05/15	2680543	US126650BX71	USD	2000.00000	USOTC	4236960	1	2017/05/01		2017/05/15	2016/11/15	2017/05/14		USD	2.875000000	0.028750000				F			F		5.750000000		F		
INTPY	I	2017/01/17	2017/05/15	4160387	US247109BS95	USD	1000.00000	USBND	4236971	1	2017/05/01			2016/11/15	2017/05/14		USD	1.750000000	0.017500000				F			F		3.500000000		F		
INTPY	I	2017/01/17	2017/05/15	4160387	US247109BS95	USD	1000.00000	USOTC	4236971	1	2017/05/01		2017/05/15	2016/11/15	2017/05/14		USD	1.750000000	0.017500000				F			F		3.500000000		F		
INTPY	I	2017/01/17	2017/05/15	4160387	US247109BS95	USD	1000.00000	USNYSE	4236971	1	2017/05/01		2017/05/15	2016/11/15	2017/05/14		USD	1.750000000	0.017500000				F			F		3.500000000		F		
INTPY	I	2017/01/17	2017/05/15	974114	US20030NAU54	USD	2000.00000	DEFSX	4236984	1	2017/05/01		2017/05/15	2016/11/15	2017/05/14		USD	3.150000000	0.031500000				F			F		6.300000000		F		
INTPY	I	2017/01/17	2017/05/15	974114	US20030NAU54	USD	2000.00000	USTRCE	4236984	1	2017/05/01		2017/05/15	2016/11/15	2017/05/14		USD	3.150000000	0.031500000				F			F		6.300000000		F		
INTPY	I	2017/01/17	2017/05/15	974114	US20030NAU54	USD	2000.00000	USOTC	4236984	1	2017/05/01		2017/05/15	2016/11/15	2017/05/14		USD	3.150000000	0.031500000				F			F		6.300000000		F		
INTPY	I	2017/01/17	2017/05/15	974114	US20030NAU54	USD	2000.00000	DEBSE	4236984	1	2017/05/01		2017/05/15	2016/11/15	2017/05/14		USD	3.150000000	0.031500000				F			F		6.300000000		F		
INTPY	I	2017/01/17	2017/05/15	681877	US852060AD48	USD	1000.00000	DEBSE	4237009	1	2017/05/01		2017/05/15	2016/11/15	2017/05/14		USD	3.437500000	0.034375000				F			F		6.875000000		F		
INTPY	I	2017/01/17	2017/05/15	681877	US852060AD48	USD	1000.00000	DEFSX	4237009	1	2017/05/01		2017/05/15	2016/11/15	2017/05/14		USD	3.437500000	0.034375000				F			F		6.875000000		F		
INTPY	I	2017/01/17	2017/05/15	681877	US852060AD48	USD	1000.00000	LULSE	4237009	1	2017/05/01		2017/05/15	2016/11/15	2017/05/14		USD	3.437500000	0.034375000				F			F		6.875000000		F		
INTPY	I	2017/01/17	2017/05/15	681877	US852060AD48	USD	1000.00000	USNYSE	4237009	1	2017/05/01			2016/11/15	2017/05/14		USD	3.437500000	0.034375000				F			F		6.875000000		F		
INTPY	I	2017/01/17	2017/05/15	681877	US852060AD48	USD	1000.00000	USTRCE	4237009	1	2017/05/01		2017/05/15	2016/11/15	2017/05/14		USD	3.437500000	0.034375000				F			F		6.875000000		F		
INTPY	I	2017/01/17	2017/05/15	681877	US852060AD48	USD	1000.00000	USOTC	4237009	1	2017/05/01		2017/05/15	2016/11/15	2017/05/14		USD	3.437500000	0.034375000				F			F		6.875000000		F		
INTPY	I	2017/01/17	2017/05/15	4765195	US125896BQ27	USD	2000.00000	USTRCE	4237078	1	2017/05/01		2017/05/15	2016/11/15	2017/05/14		USD	1.500000000	0.015000000				F			F		3.000000000		F		
INTPY	I	2017/01/17	2017/05/15	4765195	US125896BQ27	USD	2000.00000	CABND	4237078	1	2017/05/01		2017/05/15	2016/11/15	2017/05/14		USD	1.500000000	0.015000000				F			F		3.000000000		F		
INTPY	I	2017/01/17	2017/05/15	4765195	US125896BQ27	USD	2000.00000	USNYSE	4237078	1	2017/05/01		2017/05/15	2016/11/15	2017/05/14		USD	1.500000000	0.015000000				F			F		3.000000000		F		
INTPY	I	2017/01/17	2017/05/15	4765195	US125896BQ27	USD	2000.00000	DEFSX	4237078	1	2017/05/01		2017/05/15	2016/11/15	2017/05/14		USD	1.500000000	0.015000000				F			F		3.000000000		F		
INTPY	I	2017/01/17	2017/05/15	839330	US478160AL82	USD	1000.00000	USNYSE	4237104	1	2017/05/01		2017/05/15	2016/11/15	2017/05/14		USD	2.475000000	0.024750000				F			F		4.950000000		F		
INTPY	I	2017/01/17	2017/05/15	839330	US478160AL82	USD	1000.00000	USTRCE	4237104	1	2017/05/01		2017/05/15	2016/11/15	2017/05/14		USD	2.475000000	0.024750000				F			F		4.950000000		F		
INTPY	I	2017/01/17	2017/05/15	839330	US478160AL82	USD	1000.00000	USOTC	4237104	1	2017/05/01		2017/05/15	2016/11/15	2017/05/14		USD	2.475000000	0.024750000				F			F		4.950000000		F		
INTPY	I	2017/01/17	2017/05/15	839330	US478160AL82	USD	1000.00000	DEBSE	4237104	1	2017/05/01		2017/05/15	2016/11/15	2017/05/14		USD	2.475000000	0.024750000				F			F		4.950000000		F		
INTPY	I	2017/01/17	2017/05/15	4500272	US68389XBC83	USD	2000.00000	USTRCE	4237143	1	2017/04/30		2017/05/15	2016/11/15	2017/05/14		USD	1.475000000	0.014750000				F			F		2.950000000		F		
INTPY	I	2017/01/17	2017/05/15	4500272	US68389XBC83	USD	2000.00000	USNYSE	4237143	1	2017/04/30		2017/05/15	2016/11/15	2017/05/14		USD	1.475000000	0.014750000				F			F		2.950000000		F		
INTPY	I	2017/01/17	2017/05/15	4500272	US68389XBC83	USD	2000.00000	DEFSX	4237143	1	2017/04/30		2017/05/15	2016/11/15	2017/05/14		USD	1.475000000	0.014750000				F			F		2.950000000		F		
INTPY	I	2017/01/17	2017/05/15	4500272	US68389XBC83	USD	2000.00000	DEBSE	4237143	1	2017/04/30		2017/05/15	2016/11/15	2017/05/14		USD	1.475000000	0.014750000				F			F		2.950000000		F		
INTPY	I	2017/01/17	2017/05/15	4500272	US68389XBC83	USD	2000.00000	CABND	4237143	1	2017/04/30		2017/05/15	2016/11/15	2017/05/14		USD	1.475000000	0.014750000				F			F		2.950000000		F		
INTPY	I	2017/01/17	2017/01/17	4035922	US81783QAA31	USD	2000.00000	USBND	4237239	1	2017/05/01			2016/11/15	2017/05/14		USD	4.125000000	0.041250000				F			F		8.250000000		F		
INTPY	I	2017/01/17	2017/05/15	4035922	US81783QAA31	USD	2000.00000	USTRCE	4237239	1	2017/05/01		2017/05/15	2016/11/15	2017/05/14		USD	4.125000000	0.041250000				F			F		8.250000000		F		
INTPY	I	2017/01/17	2017/05/15	4035922	US81783QAA31	USD	2000.00000	USOTC	4237239	1	2017/05/01		2017/05/15	2016/11/15	2017/05/14		USD	4.125000000	0.041250000				F			F		8.250000000		F		
INTPY	I	2017/01/17	2017/05/15	4035922	US81783QAA31	USD	2000.00000	CABND	4237239	1	2017/05/01		2017/05/15	2016/11/15	2017/05/14		USD	4.125000000	0.041250000				F			F		8.250000000		F		
INTPY	I	2017/01/17	2017/05/15	1242845	US26442CAG96	USD	2000.00000	DEFSX	4237242	1	2017/05/01		2017/05/15	2016/11/15	2017/05/14		USD	3.500000000	0.035000000				F			F		7.000000000		F		
INTPY	I	2017/01/17	2017/05/15	1242845	US26442CAG96	USD	2000.00000	USNYSE	4237242	1	2017/05/01		2017/05/15	2016/11/15	2017/05/14		USD	3.500000000	0.035000000				F			F		7.000000000		F		
INTPY	I	2017/01/17	2017/05/15	1242845	US26442CAG96	USD	2000.00000	USTRCE	4237242	1	2017/05/01		2017/05/15	2016/11/15	2017/05/14		USD	3.500000000	0.035000000				F			F		7.000000000		F		
INTPY	I	2017/01/17	2017/05/15	1242845	US26442CAG96	USD	2000.00000	USOTC	4237242	1	2017/05/01		2017/05/15	2016/11/15	2017/05/14		USD	3.500000000	0.035000000				F			F		7.000000000		F		
INTPY	I	2017/01/17	2017/05/15	1242845	US26442CAG96	USD	2000.00000	DEBSE	4237242	1	2017/05/01		2017/05/15	2016/11/15	2017/05/14		USD	3.500000000	0.035000000				F			F		7.000000000		F		
INTPY	I	2017/01/17	2017/05/15	262564	US655844AE88	USD	1000.00000	DEFSX	4237247	1	2017/04/30		2017/05/15	2016/11/15	2017/05/14		USD	3.850000000	0.038500000				F			F		7.700000000		F		
INTPY	I	2017/01/17	2017/01/17	262564	US655844AE88	USD	1000.00000	USBND	4237247	1	2017/04/30			2016/11/15	2017/05/14		USD	3.850000000	0.038500000				F			F		7.700000000		F		
INTPY	I	2017/01/17	2017/05/15	262564	US655844AE88	USD	1000.00000	USNYSE	4237247	1	2017/04/30		2017/05/15	2016/11/15	2017/05/14		USD	3.850000000	0.038500000				F			F		7.700000000		F		
INTPY	I	2017/01/17	2017/05/15	262564	US655844AE88	USD	1000.00000	USTRCE	4237247	1	2017/04/30		2017/05/15	2016/11/15	2017/05/14		USD	3.850000000	0.038500000				F			F		7.700000000		F		
INTPY	I	2017/01/17	2017/05/15	262564	US655844AE88	USD	1000.00000	USOTC	4237247	1	2017/04/30		2017/05/15	2016/11/15	2017/05/14		USD	3.850000000	0.038500000				F			F		7.700000000		F		
INTPY	I	2017/01/17	2017/05/15	3932135	US852061AS99	USD	2000.00000	DEFSX	4237276	1	2017/05/01		2017/05/15	2016/11/15	2017/05/14		USD	3.000000000	0.030000000				F			F		6.000000000		F		
INTPY	I	2017/01/17	2017/05/15	3932135	US852061AS99	USD	2000.00000	USNYSE	4237276	1	2017/05/01		2017/05/15	2016/11/15	2017/05/14		USD	3.000000000	0.030000000				F			F		6.000000000		F		
INTPY	I	2017/01/17	2017/05/15	3932135	US852061AS99	USD	2000.00000	USTRCE	4237276	1	2017/05/01		2017/05/15	2016/11/15	2017/05/14		USD	3.000000000	0.030000000				F			F		6.000000000		F		
INTPY	I	2017/01/17	2017/05/15	3932135	US852061AS99	USD	2000.00000	USOTC	4237276	1	2017/05/01		2017/05/15	2016/11/15	2017/05/14		USD	3.000000000	0.030000000				F			F		6.000000000		F		
INTPY	I	2017/01/17	2017/05/15	3932135	US852061AS99	USD	2000.00000	DEBSE	4237276	1	2017/05/01		2017/05/15	2016/11/15	2017/05/14		USD	3.000000000	0.030000000				F			F		6.000000000		F		
INTPY	I	2017/01/17	2017/05/15	4256681	US863667AG64	USD	2000.00000	USTRCE	4237278	1	2017/05/01		2017/05/15	2016/11/15	2017/05/14		USD	2.187500000	0.021875000				F			F		4.375000000		F		
INTPY	I	2017/01/17	2017/05/15	4256681	US863667AG64	USD	2000.00000	DEFSX	4237278	1	2017/05/01		2017/05/15	2016/11/15	2017/05/14		USD	2.187500000	0.021875000				F			F		4.375000000		F		
INTPY	I	2017/01/17	2017/05/15	4256681	US863667AG64	USD	2000.00000	USNYSE	4237278	1	2017/05/01		2017/05/15	2016/11/15	2017/05/14		USD	2.187500000	0.021875000				F			F		4.375000000		F		
INTPY	I	2017/01/17	2017/05/15	4256681	US863667AG64	USD	2000.00000	USOTC	4237278	1	2017/05/01		2017/05/15	2016/11/15	2017/05/14		USD	2.187500000	0.021875000				F			F		4.375000000		F		
INTPY	I	2017/01/17	2017/05/15	1234693	US86311Q2049	USD	10.00000	USNYSE	4237584	1	2017/12/14	2017/12/13	2017/12/15	2017/06/15	2017/12/14		USD		0.031870000				F			F		6.375000000		F		
INTPY	I	2017/01/20	2017/05/15	4777874	US857477AW33	USD	2000.00000	USTRCE	4241973	1	2017/05/04		2017/05/19	2016/11/19	2017/05/18		USD	1.325000000	0.013250000				F			F		2.650000000		F		
INTPY	I	2017/01/20	2017/05/15	4777874	US857477AW33	USD	2000.00000	USNYSE	4241973	1	2017/05/04		2017/05/19	2016/11/19	2017/05/18		USD	1.325000000	0.013250000				F			F		2.650000000		F		
INTPY	I	2017/01/20	2017/05/15	4777874	US857477AW33	USD	2000.00000	DEBSE	4241973	1	2017/05/04		2017/05/19	2016/11/19	2017/05/18		USD	1.325000000	0.013250000				F			F		2.650000000		F		
INTPY	I	2017/02/02	2017/05/15	681881	US872649BH09	USD	1000.00000	LULSE	4256120	1	2017/05/15		2017/06/01	2016/12/01	2017/05/31		USD	3.875000000	0.038750000				F			F		7.750000000		F		
INTPY	I	2017/02/02	2017/05/15	681881	US872649BH09	USD	1000.00000	USNYSE	4256120	1	2017/05/15		2017/06/01	2016/12/01	2017/05/31		USD	3.875000000	0.038750000				F			F		7.750000000		F		
INTPY	I	2017/02/02	2017/05/15	681881	US872649BH09	USD	1000.00000	USTRCE	4256120	1	2017/05/15		2017/06/01	2016/12/01	2017/05/31		USD	3.875000000	0.038750000				F			F		7.750000000		F		
INTPY	I	2017/02/02	2017/02/02	681881	US872649BH09	USD	1000.00000	USUL	4256120	1	2017/05/15			2016/12/01	2017/05/31		USD	3.875000000	0.038750000				F			F		7.750000000		F		
INTPY	I	2017/02/02	2017/05/15	681881	US872649BH09	USD	1000.00000	USOTC	4256120	1	2017/05/15		2017/06/01	2016/12/01	2017/05/31		USD	3.875000000	0.038750000				F			F		7.750000000		F		
INTPY	I	2017/02/02	2017/05/15	4384999	US875484AH01	USD	2000.00000	USTRCE	4256121	1	2017/05/15		2017/06/01	2016/12/01	2017/05/31		USD	1.875000000	0.018750000				F			F		3.750000000		F		
INTPY	I	2017/02/02	2017/05/15	4384999	US875484AH01	USD	2000.00000	USNYSE	4256121	1	2017/05/15		2017/06/01	2016/12/01	2017/05/31		USD	1.875000000	0.018750000				F			F		3.750000000		F		
INTPY	U	2016/11/17	2017/05/15	1663832	US48123UAA25	USD	1000.00000	USTRCE	4154147	1	2017/04/28		2017/05/15	2017/02/15	2017/05/14	89	USD	0.504086111	0.005040861				F			F		2.039000000		F		
INTPY	U	2016/11/17	2017/05/15	1663832	US48123UAA25	USD	1000.00000	USOTC	4154147	1	2017/04/28		2017/05/15	2017/02/15	2017/05/14	89	USD	0.504086111	0.005040861				F			F		2.039000000		F		
INTPY	I	2017/02/11	2017/05/15	1462430	US693476BF90	USD	2000.00000	USNYSE	4273731	1	2017/06/01		2017/06/10	2016/12/10	2017/06/09		USD	3.350000000	0.033500000				F			F		6.700000000		F		
INTPY	I	2017/02/11	2017/05/15	1462430	US693476BF90	USD	2000.00000	USTRCE	4273731	1	2017/06/01		2017/06/10	2016/12/10	2017/06/09		USD	3.350000000	0.033500000				F			F		6.700000000		F		
INTPY	I	2017/02/11	2017/05/15	1462430	US693476BF90	USD	2000.00000	USOTC	4273731	1	2017/06/01		2017/06/10	2016/12/10	2017/06/09		USD	3.350000000	0.033500000				F			F		6.700000000		F		
INTPY	I	2017/02/11	2017/05/15	1462430	US693476BF90	USD	2000.00000	DEBSE	4273731	1	2017/06/01		2017/06/10	2016/12/10	2017/06/09		USD	3.350000000	0.033500000				F			F		6.700000000		F		
INTPY	I	2017/02/14	2017/05/15	977255	US949746NX52	USD	1000.00000	DEFSX	4276666	1	2017/05/26		2017/06/11	2016/12/11	2017/06/10		USD	2.812500000	0.028125000				F			F		5.625000000		F		
INTPY	I	2017/02/14	2017/05/15	977255	US949746NX52	USD	1000.00000	USNYSE	4276666	1	2017/05/26		2017/06/11	2016/12/11	2017/06/10		USD	2.812500000	0.028125000				F			F		5.625000000		F		
INTPY	I	2017/02/14	2017/05/15	977255	US949746NX52	USD	1000.00000	USTRCE	4276666	1	2017/05/26		2017/06/11	2016/12/11	2017/06/10		USD	2.812500000	0.028125000				F			F		5.625000000		F		
INTPY	I	2017/02/14	2017/05/15	977255	US949746NX52	USD	1000.00000	USOTC	4276666	1	2017/05/26		2017/06/11	2016/12/11	2017/06/10		USD	2.812500000	0.028125000				F			F		5.625000000		F		
INTPY	I	2017/02/14	2017/05/15	977255	US949746NX52	USD	1000.00000	CHBND	4276666	1	2017/05/26		2017/06/11	2016/12/11	2017/06/10		USD	2.812500000	0.028125000				F			F		5.625000000		F		
INTPY	I	2017/02/14	2017/05/15	209279	US172967CT60	USD	1000.00000	CHBND	4276684	1	2017/05/31		2017/06/11	2016/12/11	2017/06/10		USD	2.925000000	0.029250000				F			F		5.850000000		F		
INTPY	I	2017/02/14	2017/02/14	209279	US172967CT60	USD	1000.00000	CHSSX	4276684	1	2017/05/31			2016/12/11	2017/06/10		USD	2.925000000	0.029250000				F			F		5.850000000		F		
INTPY	I	2017/02/14	2017/05/15	209279	US172967CT60	USD	1000.00000	DEFSX	4276684	1	2017/05/31		2017/06/11	2016/12/11	2017/06/10		USD	2.925000000	0.029250000				F			F		5.850000000		F		
INTPY	I	2017/02/14	2017/05/15	209279	US172967CT60	USD	1000.00000	LULSE	4276684	1	2017/05/31		2017/06/11	2016/12/11	2017/06/10		USD	2.925000000	0.029250000				F			F		5.850000000		F		
INTPY	I	2017/02/14	2017/05/15	209279	US172967CT60	USD	1000.00000	USNASD	4276684	1	2017/05/31		2017/06/11	2016/12/11	2017/06/10		USD	2.925000000	0.029250000				F			F		5.850000000		F		
INTPY	I	2017/02/14	2017/05/15	209279	US172967CT60	USD	1000.00000	USNYSE	4276684	1	2017/05/31		2017/06/11	2016/12/11	2017/06/10		USD	2.925000000	0.029250000				F			F		5.850000000		F		
INTPY	I	2017/02/14	2017/05/15	209279	US172967CT60	USD	1000.00000	USTRCE	4276684	1	2017/05/31		2017/06/11	2016/12/11	2017/06/10		USD	2.925000000	0.029250000				F			F		5.850000000		F		
INTPY	I	2017/02/14	2017/05/15	209279	US172967CT60	USD	1000.00000	USOTC	4276684	1	2017/05/31		2017/06/11	2016/12/11	2017/06/10		USD	2.925000000	0.029250000				F			F		5.850000000		F		
INTPY	I	2017/02/14	2017/05/15	209279	US172967CT60	USD	1000.00000	DEBSE	4276684	1	2017/05/31		2017/06/11	2016/12/11	2017/06/10		USD	2.925000000	0.029250000				F			F		5.850000000		F		
INTPY	I	2017/02/27	2017/05/15	4700186	XS1361110270	EUR	100000.00000	XSBND	4292329	1	2017/02/17			2016/02/18	2017/02/17		EUR	3.509722222	0.035097222				F			F		3.500000000		F		
INTPY	I	2017/02/27	2017/05/15	4700186	XS1361110270	EUR	100000.00000	LULSE	4292329	1	2017/02/17		2017/02/20	2016/02/18	2017/02/17		EUR	3.509722222	0.035097222				F			F		3.500000000		F		
INTPY	I	2016/12/27	2017/05/15	658540	CA46625HFD76	CAD	100000.00000	CATSE	4205638	1	2017/04/13		2017/04/28	2017/03/22	2017/04/21		CAD		0.001468273				F			F				F		
INTPY	I	2016/12/27	2017/05/15	658540	CA46625HFD76	CAD	100000.00000	USNYSE	4205638	1	2017/04/13		2017/04/22	2017/03/22	2017/04/21		CAD		0.001468273				F			F				F		
INTPY	I	2017/05/15	2017/05/15	3121497	XS0685042524	USD	1000.00000	LULSE	4403229	1	2017/05/05		2017/05/08	2017/02/07	2017/05/06		USD	0.937500000	0.009375000				F			F		3.750000000		F		
INTPY	I	2017/05/15	2017/05/15	3121497	XS0685042524	USD	1000.00000	XSBND	4403229	1	2017/05/05			2017/02/07	2017/05/06		USD	0.937500000	0.009375000				F			F		3.750000000		F		
INTPY	I	2017/04/27	2017/04/27	5030554	XS1558022866	EUR	100000.00000	XSBND	4376469	1	2017/07/28			2017/04/28	2017/07/30	94	EUR	0.044388888	0.000443888				F			F		0.170000000		F		
INTPY	I	2017/04/27	2017/05/15	5030554	XS1558022866	EUR	100000.00000	GBLSE	4376469	1	2017/07/28		2017/07/31	2017/04/28	2017/07/30	94	EUR	0.044388888	0.000443888				F			F		0.170000000		F		
INTPY	I	2017/04/27	2017/05/15	5030554	XS1558022866	EUR	100000.00000	DEBSE	4376469	1	2017/07/28		2017/07/31	2017/04/28	2017/07/30	94	EUR	0.044388888	0.000443888				F			F		0.170000000		F		
INTPY	I	2017/05/04	2017/05/15	3973811	XS0884604728	CZK	2000000.00000	GBLSE	4385440	1	2017/08/04		2017/08/07	2017/05/05	2017/08/06	94	CZK	0.193222222	0.001932222				F			F		0.740000000		F		
INTPY	I	2017/05/04	2017/05/15	3973811	XS0884604728	CZK	2000000.00000	XSBND	4385440	1	2017/08/04		2017/08/07	2017/05/05	2017/08/06	94	CZK	0.193222222	0.001932222				F			F		0.740000000		F		
INTPY	I	2017/05/12	2017/05/12	4701410	XS1362381672	GBP	100000.00000	XSBND	4400407	1	2017/08/10			2017/05/11	2017/08/10	92	GBP	0.205331397	0.002053313				F			F		0.814630000		F		
INTPY	I	2017/05/12	2017/05/15	4701410	XS1362381672	GBP	100000.00000	GBLSE	4400407	1	2017/08/10		2017/08/11	2017/05/11	2017/08/10	92	GBP	0.205331397	0.002053313				F			F		0.814630000		F		
INTPY	I	2017/05/12	2017/05/15	4351097	XS1113563784	USD	10000.00000	XSBND	4400697	1	2017/04/28		2017/05/01	2017/04/01	2017/04/30		USD	0.298966666	0.002989666				F			F		3.587600000		F		
INTPY	I	2017/05/13	2017/05/15	5135496	XS1417274781	USD	1000.00000	XSBND	4402197	1	2017/08/10		2017/08/11	2017/05/11	2017/08/10		USD	0.498333333	0.004983333				F			F		1.950000000		F		
INTPY	I	2017/05/13	2017/05/15	4429988	XS1173867836	USD	1000.00000	XSBND	4402211	1	2017/08/11		2017/08/14	2017/05/12	2017/08/13		USD	0.339444444	0.003394444				F			F		1.300000000		F		
INTPY	I	2017/05/13	2017/05/15	4838388	XS1346515551	USD	1000.00000	XSBND	4402213	1	2017/08/11		2017/08/12	2017/05/12	2017/08/11		USD	0.450000000	0.004500000				F			F		1.800000000		F		
INTPY	I	2017/05/13	2017/05/15	4769384	XS1308288841	GBP	1000.00000	XSBND	4402239	1	2017/08/10		2017/08/11	2017/05/11	2017/08/10		GBP	0.162500000	0.001625000				F			F		0.650000000		F		
INTPY	I	2017/05/13	2017/05/15	4771672	XS1308288502	USD	1000.00000	XSBND	4402260	1	2017/08/10		2017/08/11	2017/05/11	2017/08/10		USD	0.437500000	0.004375000				F			F		1.750000000		F		
INTPY	I	2017/05/13	2017/05/15	4140890	XS0988910997	EUR	100000.00000	LULSE	4402263	1	2017/08/10		2017/08/11	2017/05/11	2017/08/10		EUR	0.500000000	0.005000000				F			F		2.000000000		F		
INTPY	I	2017/05/13	2017/05/15	4257399	XS1064100115	EUR	100000.00000	GBLSE	4402266	1	2017/08/04		2017/08/07	2017/05/08	2017/08/06		EUR	0.068502778	0.000685028				F			F		0.271000000		F		
INTPY	I	2017/05/13	2017/05/15	4257399	XS1064100115	EUR	100000.00000	DEFSX	4402266	1	2017/08/04		2017/08/07	2017/05/08	2017/08/06		EUR	0.068502778	0.000685028				F			F		0.271000000		F		
INTPY	I	2017/05/13	2017/05/15	4257399	XS1064100115	EUR	100000.00000	DEDSE	4402266	1	2017/08/04		2017/08/07	2017/05/08	2017/08/06		EUR	0.068502778	0.000685028				F			F		0.271000000		F		
INTPY	I	2017/05/13	2017/05/15	4257399	XS1064100115	EUR	100000.00000	DEBSE	4402266	1	2017/08/04		2017/08/07	2017/05/08	2017/08/06		EUR	0.068502778	0.000685028				F			F		0.271000000		F		
INTPY	I	2017/05/13	2017/05/15	4257399	XS1064100115	EUR	100000.00000	ITMSE	4402266	1	2017/08/04		2017/08/07	2017/05/08	2017/08/06		EUR	0.068502778	0.000685028				F			F		0.271000000		F		
INTPY	I	2017/05/13	2017/05/15	4702670	XS1308291803	USD	1000.00000	XSBND	4402268	1	2017/08/10		2017/08/11	2017/05/11	2017/08/10		USD	0.345000000	0.003450000				F			F		1.350000000		F		
INTPY	I	2017/05/13	2017/05/15	2578489	XS0608721550	USD		LULSE	4402393	1	2017/05/04		2017/05/05	2017/02/05	2017/05/04		USD	1.000000000	0.010000000				F			F		4.000000000		F		
INTPY	I	2017/05/13	2017/05/15	2578489	XS0608721550	USD		XSBND	4402393	1	2017/05/04			2017/02/05	2017/05/04		USD	1.000000000	0.010000000				F			F		4.000000000		F		
INTPY	I	2017/05/13	2017/05/15	4838410	XS1346516443	AUD	10000.00000	XSBND	4402516	1	2017/05/04		2017/05/05	2017/02/05	2017/05/04		AUD	1.580000000	0.015800000				F			F				F		
INTPY	I	2017/05/13	2017/05/15	4517608	XS1232273018	EUR	100000.00000	GBLSE	4402522	1	2017/05/17		2017/05/18	2017/02/18	2017/05/17		EUR	0.712500000	0.007125000				F			F		2.850000000		F		
INTPY	I	2017/05/13	2017/05/15	4127283	US12502YAP88	USD		CABND	4402559	1			2017/07/10	2017/06/10	2017/07/09		USD		0.003958333				F			F		4.750000000		F		
INTPY	I	2017/05/13	2017/05/15	3877469	XS0734459497	GHS	300000.00000	LULSE	4402579	1	2017/04/28		2017/05/01	2017/02/01	2017/04/30		USD	3.875000000	0.038750000				F			F		15.500000000		F		
INTPY	I	2017/05/13	2017/05/15	3877469	XS0734459497	GHS	300000.00000	XSBND	4402579	1	2017/04/28			2017/02/01	2017/04/30		USD	3.875000000	0.038750000				F			F		15.500000000		F		
INTPY	I	2017/05/13	2017/05/15	1444893	USU88321AC55	USD	1000.00000	USBND	4402594	1				2017/02/15	2017/05/14	89	USD	0.685794444	0.006857944				F			F		2.774000000		F		
INTPY	I	2017/05/13	2017/05/15	1444893	USU88321AC55	USD	1000.00000	USTRCE	4402594	1			2017/05/15	2017/02/15	2017/05/14	89	USD	0.685794444	0.006857944				F			F		2.774000000		F		
INTPY	I	2017/05/13	2017/05/15	1444893	USU88321AC55	USD	1000.00000	USOTC	4402594	1			2017/05/15	2017/02/15	2017/05/14	89	USD	0.685794444	0.006857944				F			F		2.774000000		F		
INTPY	I	2017/05/13	2017/05/15	4979077	US94988J5H68	USD	250000.00000	USTRCE	4402609	1			2017/05/28	2017/02/28	2017/05/27	89	USD	0.383194444	0.003831944				F			F		1.550000000		F		
INTPY	I	2017/05/13	2017/05/15	4704342	US94986RF307	USD	1000.00000	USTRCE	4402625	1			2017/05/19	2017/02/20	2017/05/18	89	USD	0.446606944	0.004466069				F			F		1.806500000		F		
INTPY	I	2017/05/13	2017/05/15	5040650	US949746SP73	USD	1000.00000	USTRCE	4402631	1			2017/05/11	2017/02/13	2017/05/10	88	USD	0.480020444	0.004800204				F			F		1.963720000		F		
INTPY	I	2017/05/13	2017/05/15	5034113	US90327QCZ00	USD		USTRCE	4402638	1			2017/08/01	2017/05/01	2017/07/31	92	USD	0.357665333	0.003576653				F			F		1.399560000		F		
INTPY	I	2017/05/13	2017/05/15	5046489	US89236TDT97	USD	1000.00000	USBND	4402646	1				2017/02/15	2017/05/14	89	USD	0.313725000	0.003137250				F			F		1.269000000		F		
INTPY	I	2017/05/13	2017/05/15	5046489	US89236TDT97	USD	1000.00000	USTRCE	4402646	1			2017/05/15	2017/02/15	2017/05/14	89	USD	0.313725000	0.003137250				F			F		1.269000000		F		
INTPY	I	2017/05/13	2017/05/15	1288690	US883199AR25	USD	1000.00000	USBND	4402652	1				2017/02/15	2017/05/14	89	USD	0.685794444	0.006857944				F			F		2.774000000		F		
INTPY	I	2017/05/13	2017/05/15	1288690	US883199AR25	USD	1000.00000	USTRCE	4402652	1			2017/05/15	2017/02/15	2017/05/14	89	USD	0.685794444	0.006857944				F			F		2.774000000		F		
INTPY	I	2017/05/13	2017/05/15	1288690	US883199AR25	USD	1000.00000	USOTC	4402652	1			2017/05/15	2017/02/15	2017/05/14	89	USD	0.685794444	0.006857944				F			F		2.774000000		F		
INTPY	I	2017/05/13	2017/05/15	5030685	US86787EAS63	USD		USTRCE	4402655	1			2017/07/30	2017/04/28	2017/07/29	92	USD	0.434899333	0.004348993				F			F		1.701780000		F		
INTPY	I	2017/05/13	2017/05/15	4070848	US78423AU264	USD		USTRCE	4402664	1			2017/05/30	2017/04/30	2017/05/29	30	USD	0.333336666	0.003333366				F			F		4.000040000		F		
INTPY	I	2017/05/13	2017/05/15	5051862	US718172BY40	USD	2000.00000	USTRCE	4402707	1			2017/05/22	2017/02/21	2017/05/21	90	USD	0.368082500	0.003680825				F			F		1.472330000		F		
INTPY	I	2017/05/13	2017/05/15	5051862	US718172BY40	USD	2000.00000	USNYSE	4402707	1			2017/05/22	2017/02/21	2017/05/21	90	USD	0.368082500	0.003680825				F			F		1.472330000		F		
INTPY	I	2017/05/13	2017/05/15	4975826	US694308HQ36	USD	2000.00000	USTRCE	4402713	1			2017/05/29	2017/02/28	2017/05/27	89	USD	0.309027777	0.003090277				F			F		1.250000000		F		
INTPY	I	2017/05/13	2017/05/15	5037269	US693475AS48	USD	2000.00000	USTRCE	4402718	1			2017/08/07	2017/05/08	2017/08/06	91	USD	0.361290222	0.003612902				F			F		1.429280000		F		
INTPY	I	2017/05/13	2017/05/15	4450002	US65539ABT60	USD	1000.00000	USOTC	4402728	1			2017/05/25	2017/02/27	2017/05/24	88	USD	0.444888888	0.004448888				F			F		1.820000000		F		
INTPY	I	2017/05/13	2017/05/15	4450002	US65539ABT60	USD	1000.00000	USTRCE	4402728	1			2017/05/25	2017/02/27	2017/05/24	88	USD	0.444888888	0.004448888				F			F		1.820000000		F		
INTPY	I	2017/01/11	2017/05/15	4171711	US36248GAJ94	USD	10000.00000	CABND	4230526	1	2017/04/28		2017/05/12	2017/04/10	2017/05/09		USD		0.004300833				F			F		5.161000000		F		
INTPY	I	2017/05/13	2017/05/15	4951200	XS1389119857	USD	10000.00000	XSBND	4402788	1	2017/05/03		2017/05/04	2017/02/04	2017/05/03		USD	1.587500000	0.015875000				F			F				F		
INTPY	I	2017/05/13	2017/05/15	4841561	XS1346505321	USD	10000.00000	XSBND	4402791	1	2017/05/04		2017/05/05	2017/02/05	2017/05/04		USD	1.250000000	0.012500000				F			F				F		
INTPY	I	2017/05/13	2017/05/15	4036043	US48125XKB19	USD	1000.00000	USTRCE	4403022	1			2017/05/30	2017/04/30	2017/05/29	30	USD	0.375003333	0.003750033				F			F		4.500040000		F		
INTPY	I	2017/05/13	2017/05/15	4979569	US48126D6J39	USD	1000.00000	USTRCE	4403023	1			2017/05/30	2017/04/30	2017/05/29	30	USD	0.313996666	0.003139966				F			F		3.767960000		F		
INTPY	I	2017/05/13	2017/05/15	4286381	US61745E2T79	USD	1000.00000	USOTC	4403034	1			2017/05/28	2017/02/28	2017/05/27	90	USD	1.137500000	0.011375000				F			F		4.550000000		F		
INTPY	I	2017/05/13	2017/05/15	3991615	US61745E4S78	USD	1000.00000	USTRCE	4403037	1			2017/05/12	2017/02/12	2017/05/11	89	USD	1.145334904	0.011453349				F			F		4.697160000		F		
INTPY	I	2017/05/13	2017/05/15	3991615	US61745E4S78	USD	1000.00000	USOTC	4403037	1			2017/05/12	2017/02/12	2017/05/11	89	USD	1.145334904	0.011453349				F			F		4.697160000		F		
INTPY	I	2017/05/13	2017/05/15	5050045	US61746BEH50	USD	1000.00000	USTRCE	4403038	1			2017/05/14	2017/02/17	2017/05/13	86	USD	0.439980777	0.004399807				F			F		1.841780000		F		
INTPY	I	2017/05/13	2017/05/15	4335908	US61760QEQ38	USD	1000.00000	USTRCE	4403042	1			2017/05/28	2017/02/28	2017/05/27	90	USD	0.512500000	0.005125000				F			F		2.050000000		F		
INTPY	I	2017/05/13	2017/05/15	4450007	US65539ABS87	USD	1000.00000	USOTC	4403043	1			2017/05/25	2017/02/25	2017/05/24	90	USD	0.577500000	0.005775000				F			F		2.310000000		F		
INTPY	I	2017/05/13	2017/05/15	4450007	US65539ABS87	USD	1000.00000	USTRCE	4403043	1			2017/05/25	2017/02/25	2017/05/24	90	USD	0.577500000	0.005775000				F			F		2.310000000		F		
INTPY	I	2017/05/15	2017/05/15	5110124	XS1382523964	INR	100000.00000	XSBND	4403076	1	2017/05/09		2017/05/10		2017/05/09		INR	2.615000000	0.026150000				F			F		5.230000000		F		
INTPY	I	2017/01/20	2017/05/15	1369862	US86358HUT49	USD	40.46888	CABND	4242416	1	2017/05/18		2017/05/19	2017/04/19	2017/05/18		USD		0.000056469				F			F				F		
INTPY	I	2017/01/20	2017/05/15	1616593	US86359LGE39	USD		CABND	4242420	1	2017/05/18		2017/05/19	2017/04/19	2017/05/18		USD		0.000047770				F			F				F		
INTPY	I	2017/05/15	2017/05/15	4830402	XS1346509075	USD	1000.00000	XSBND	4403126	1	2017/05/10		2017/05/11	2017/02/13	2017/05/10		USD	1.937500000	0.019375000				F			F				F		
INTPY	I	2017/05/15	2017/05/15	4928725	XS1389117992	USD	1000.00000	XSBND	4403130	1	2017/05/08		2017/05/09	2017/02/09	2017/05/08		USD	2.825000000	0.028250000				F			F				F		
INTPY	I	2017/05/15	2017/05/15	4700186	XS1361110270	EUR	100000.00000	XSBND	4403139	1	2017/05/17			2017/02/18	2017/05/17		EUR	3.500000000	0.035000000				F			F				F		
INTPY	I	2017/05/15	2017/05/15	4700186	XS1361110270	EUR	100000.00000	LULSE	4403139	1	2017/05/17		2017/05/18	2017/02/18	2017/05/17		EUR	3.500000000	0.035000000				F			F				F		
INTPY	I	2017/05/15	2017/05/15	4195939	XS1007808105	USD	1000.00000	IEISE	4403140	1	2017/05/05		2017/05/07	2017/02/07	2017/05/06		USD	0.625000000	0.006250000				F			F		2.500000000		F		
INTPY	I	2017/05/15	2017/05/15	4195939	XS1007808105	USD	1000.00000	XSBND	4403140	1	2017/05/05			2017/02/07	2017/05/06		USD	0.625000000	0.006250000				F			F		2.500000000		F		
INTPY	I	2017/05/15	2017/05/15	4494950	XS1210360456	USD	2000.00000	XSBND	4403158	1	2017/05/18			2016/05/19	2017/05/18		USD	2.200000000	0.022000000				F			F		2.200000000		F		
INTPY	I	2017/05/15	2017/05/15	4494950	XS1210360456	USD	2000.00000	LULSE	4403158	1	2017/05/18		2017/05/19	2016/05/19	2017/05/18		USD	2.200000000	0.022000000				F			F		2.200000000		F		
INTPY	I	2017/05/15	2017/05/15	4696621	XS1273525698	AUD	10000.00000	XSBND	4403202	1	2017/05/04		2017/05/05	2017/02/05	2017/05/04		AUD	1.500000000	0.015000000				F			F				F		
INTPY	I	2017/03/14	2017/05/15	4197025	US12630BBD91	USD	10000.00000	CABND	4317384	1	2017/04/28			2017/06/10	2017/07/09		USD		0.003956427				F			F				F		
INTPY	I	2017/05/15	2017/05/15	1227488	US12679N2036	USD	25.00000	USNYSE	4404648	1	2017/05/12	2017/05/10	2017/05/15	2017/02/15	2017/05/14		USD		0.008036000				F			F				F		
INTPY	I	2017/05/15	2017/05/15	1228112	US73941X6849	USD	25.00000	USNYSE	4404663	1	2017/05/12	2017/05/10	2017/05/15	2017/02/15	2017/05/14		USD		0.007416000				F			F				F		
INTPY	I	2017/05/15	2017/05/15	1232417	US86312E2000	USD	25.00000	USNYSE	4404667	1	2017/05/12	2017/05/10	2017/05/15	2017/04/17	2017/05/14		USD		0.001384000				F			F				F		
INTPY	I	2017/05/15	2017/05/15	1232414	US78478P8894	USD	25.00000	USNYSE	4404670	1	2017/05/12	2017/05/10	2017/05/15	2017/04/17	2017/05/14		USD		0.002464000				F			F				F		
INTPY	I	2017/05/15	2017/05/15	1887896	US7443204091	USD	25.00000	USNYSE	4404675	1	2017/06/01	2017/05/30	2017/06/12	2017/05/10	2017/06/11		USD		0.004284000				F			F				F		
INTPY	I	2017/05/15	2017/05/15	5037337	US037833CN89	USD	2000.00000	USTRCE	4404796	1			2017/08/09	2017/05/09	2017/08/08	92	USD	0.429433000	0.004294330				F			F		1.680390000		F		
EDI_ENDOFFILE
