EDI_CONV_20170515
TableName	Actflag	Created	Changed	ConvID	SecID	ISIN	Recdate	FromDate	ToDate	RatioNew	RatioOld	ConvCurrency	CurPair	Price	MandOptFlag	ResSecID	ResSectyCD	ResISIN	ResIssuername	ResSecurityDesc	Fractions	FXrate	PartFinalFlag	ConvType	RDID	PriceAsPercent	AmountConverted	SettlementDate	ExpTime	ExpTimeZone	Notes
CONV	I	2017/05/13	2017/05/15	99045	4524078	XS1241239414		2017/06/12	2017/06/12														F	MAT							
CONV	I	2017/05/15	2017/05/15	99087	3903254			2017/06/14	2017/06/14														F	MAT							
EDI_ENDOFFILE
